%YAML 1.1
%TAG !u! tag:unity3d.com,2011:
--- !u!21 &2100000
Material:
  serializedVersion: 6
  m_ObjectHideFlags: 0
  m_CorrespondingSourceObject: {fileID: 0}
  m_PrefabInstance: {fileID: 0}
  m_PrefabAsset: {fileID: 0}
  m_Name: TerrainPreviewWater
  m_Shader: {fileID: 4800000, guid: d89fe63ab8d644a71a583ddaf49feebb, type: 3}
  m_ShaderKeywords: _MASKMAP _NORMALMAP
  m_LightmapFlags: 4
  m_EnableInstancingVariants: 1
  m_DoubleSidedGI: 0
  m_CustomRenderQueue: -1
  stringTagMap: {}
  disabledShaderPasses: []
  m_SavedProperties:
    serializedVersion: 3
    m_TexEnvs:
    - _BumpMap:
        m_Texture: {fileID: 2800000, guid: 2549560835085eba88ade0882d249bb3, type: 3}
        m_Scale: {x: 1, y: 1}
        m_Offset: {x: 0, y: 0}
    - _CausticsTex:
        m_Texture: {fileID: 2800000, guid: dbd6763ce2141fcbdb46e51b1311dedf, type: 3}
        m_Scale: {x: 1, y: 1}
        m_Offset: {x: 0, y: 0}
    - _DetailAlbedoMap:
        m_Texture: {fileID: 0}
        m_Scale: {x: 1, y: 1}
        m_Offset: {x: 0, y: 0}
    - _DetailMask:
        m_Texture: {fileID: 0}
        m_Scale: {x: 1, y: 1}
        m_Offset: {x: 0, y: 0}
    - _DetailNormalMap:
        m_Texture: {fileID: 0}
        m_Scale: {x: 1, y: 1}
        m_Offset: {x: 0, y: 0}
    - _EmissionMap:
        m_Texture: {fileID: 0}
        m_Scale: {x: 1, y: 1}
        m_Offset: {x: 0, y: 0}
    - _MainTex:
        m_Texture: {fileID: 0}
        m_Scale: {x: 1, y: 1}
        m_Offset: {x: 0, y: 0}
    - _MetallicGlossMap:
        m_Texture: {fileID: 0}
        m_Scale: {x: 1, y: 1}
        m_Offset: {x: 0, y: 0}
    - _OcclusionMap:
        m_Texture: {fileID: 0}
        m_Scale: {x: 1, y: 1}
        m_Offset: {x: 0, y: 0}
    - _ParallaxMap:
        m_Texture: {fileID: 0}
        m_Scale: {x: 1, y: 1}
        m_Offset: {x: 0, y: 0}
    - _TerrainHolesTexture:
        m_Texture: {fileID: 0}
        m_Scale: {x: 1, y: 1}
        m_Offset: {x: 0, y: 0}
    m_Floats:
    - _AttenuationDepth: 15
    - _BumpScale: 0.5
    - _CausticsAttenuation: 10
    - _CausticsEndDepth: 30
    - _CausticsFadeDistance: 3
    - _CausticsScale: 0.85
    - _CausticsSpeed: 10
    - _CausticsStartDepth: 3
    - _Cutoff: 0.5
    - _DetailNormalMapScale: 1
    - _DstBlend: 0
    - _EdgeSmooth: 2
    - _GlossMapScale: 1
    - _Glossiness: 0.5
    - _GlossyReflections: 1
    - _Metallic: 0
    - _Mode: 0
    - _OcclusionStrength: 1
    - _Parallax: 0.02
    - _ReflectionDistort: 0.02
    - _RefractionAirIOR: 1
    - _RefractionDistort: 0.2
    - _RefractionFadeDepth: 25
    - _RefractionWaterIOR: 1.33
    - _SSRDistance: 100
    - _SSREyeFadeEnd: 1
    - _SSREyeFadeStart: 1
    - _SSRIterations: 32
    - _SSRMaxDistance: 1000
    - _SSRMaxPenetration: 15
    - _SSRPenetrationFade: 0.1
    - _SSRScreenEdgeFade: 0.15
    - _SSRScreenEdgeFadeStart: 0.75
    - _SSRSteepnessFade: 0.2
    - _SSRStride: 16
    - _SSRStrideDistance: 200
    - _SmoothnessTextureChannel: 0
    - _SpecularHighlights: 1
    - _SrcBlend: 1
    - _UVSec: 0
    - _WaveScale: 0.98
    - _WaveSpeed: 10
    - _ZWrite: 1
    m_Colors:
    - _AttenuationColor: {r: 0.13527946, g: 0.27066982, b: 0.3584906, a: 1}
    - _CausticsColor: {r: 1.4980392, g: 1.4980392, b: 1.4980392, a: 1}
    - _Color: {r: 1, g: 1, b: 1, a: 1}
    - _EmissionColor: {r: 0, g: 0, b: 0, a: 1}
    - _ReflectionColor: {r: 1, g: 1, b: 1, a: 1}
    - _RefractionColor: {r: 1, g: 1, b: 1, a: 1}
    - _RefractionFadeColor: {r: 0.16456035, g: 0.30983862, b: 0.4056604, a: 1}
    - _SkyboxFog: {r: 1, g: 1, b: 1, a: 0}
    - _WaveDirection: {r: 1, g: 0.5, b: -1, a: -0.4}
  m_BuildTextureStacks: []
